ClusterProfiler:真的不只是富集分析 - Guang's Home Page
…
你甚至可以用它来对单细胞聚类结果进行注释

如果我们有一个大的细胞marker库，然后我们有显著差异的基因marker,那寻找细胞类型就和过表达分析是一种情况了，都是采用超几何分布计算概率，所以：

cell_markers <- vroom::vroom('http://bio-bigdata.hrbmu.edu.cn/CellMarker/download/Human_cell_markers.txt') %>%
   tidyr::unite("cellMarker", tissueType, cancerType, cellName, sep=", ") %>% 
   dplyr::select(cellMarker, geneID) %>%
   dplyr::mutate(geneID = strsplit(geneID, ', '))
cell_markers

你甚至可以从cellmarker官网直接下载所有的细胞marker

## # A tibble: 2,868 x 2
##    cellMarker                                       geneID  
##    <chr>                                            <list>  
##  1 Kidney, Normal, Proximal tubular cell            <chr [1…
##  2 Liver, Normal, Ito cell (hepatic stellate cell)  <chr [1…
##  3 Endometrium, Normal, Trophoblast cell            <chr [1…
##  4 Germ, Normal, Primordial germ cell               <chr [1…
##  5 Corneal epithelium, Normal, Epithelial cell      <chr [1…
##  6 Placenta, Normal, Cytotrophoblast                <chr [1…
##  7 Periosteum, Normal, Periosteum-derived progenit… <chr [4…
##  8 Amniotic membrane, Normal, Amnion epithelial ce… <chr [2…
##  9 Primitive streak, Normal, Primitive streak cell  <chr [2…
## 10 Adipose tissue, Normal, Stromal vascular fracti… <chr [1…
## # … with 2,858 more rows
…
